{
  "uuid": "775f6f94-54da-4a6a-9b87-05602d64db93",
  "name": "toarray",
  "description": "convert collection to array",
  "extraSearchTerms": [],
  "tags": [
    "java"
  ],
  "code": "${type:elemType(collection)}[] ${arrayName:newName(type)} \u003d  ${collection}.toArray(new ${type}[${collection}.size()]);",
  "location": "JAVA_STATEMENTS",
  "filenameRestrictions": [],
  "dependencies": [
    {
      "groupId": "jre",
      "artifactId": "jre",
      "version": "0.0.0"
    }
  ]
}